R语言实战临床预测模型 - 11 变量筛选之先单后多
…
拟合多因素cox回归模型并查看结果：

final.fit <- coxph(Surv(time_months,event)~., data = sub_dat)
res <- broom::tidy(final.fit)
res
## # A tibble: 25 × 5
##    term             estimate std.error statistic p.value
##    <chr>               <dbl>     <dbl>     <dbl>   <dbl>
##  1 AC005180.2low      0.146      0.413     0.354 0.723  
##  2 AC005180.1low     -0.343      0.399    -0.859 0.390  
##  3 AC053503.3low     -0.139      0.391    -0.355 0.723  
##  4 MIR100HGlow       -0.365      0.366    -0.997 0.319  
##  5 AP001107.5low      0.284      0.344     0.825 0.409  
##  6 `C5orf66-AS1`low  -0.538      0.284    -1.89  0.0587 
##  7 AL162424.1low      0.0418     0.335     0.125 0.901  
##  8 `ADAMTS9-AS1`low  -0.947      0.360    -2.63  0.00853
##  9 MIR200CHGlow       0.0336     0.329     0.102 0.919  
## 10 AC093010.3low      0.905      0.323     2.80  0.00505
## # ℹ 15 more rows
…
