R语言实战临床预测模型 - 46 tidymodels实现多模型比较
…
建立模型：

fit_lm <- lm_wflow %>% fit(data = train_data)

应用于测试集：

pred_lm <- select(test_data, play_type) %>% 
  bind_cols(predict(fit_lm, test_data, type = "prob")) %>% 
  bind_cols(predict(fit_lm, test_data))

pred_lm
## # A tibble: 22,995 × 4
##    play_type .pred_pass .pred_run .pred_class
##    <fct>          <dbl>     <dbl> <fct>      
##  1 pass           0.399     0.601 run        
##  2 pass           0.817     0.183 pass       
##  3 pass           0.754     0.246 pass       
##  4 pass           0.683     0.317 pass       
##  5 run            0.327     0.673 run        
##  6 run            0.615     0.385 pass       
##  7 pass           0.591     0.409 pass       
##  8 run            0.669     0.331 pass       
##  9 pass           0.767     0.233 pass       
## 10 pass           0.437     0.563 run        
## # ℹ 22,985 more rows
…
查看模型表现：

rf_res %>% 
  collect_metrics(summarize = T)
## # A tibble: 2 × 6
##   .metric  .estimator  mean     n std_err .config             
##   <chr>    <chr>      <dbl> <int>   <dbl> <chr>               
## 1 accuracy binary     0.732    10 0.00157 Preprocessor1_Model1
## 2 roc_auc  binary     0.799    10 0.00193 Preprocessor1_Model1

查看具体的结果：

rf_res %>% collect_predictions()
## # A tibble: 68,981 × 7
##    id     .pred_pass .pred_run  .row .pred_class play_type .config             
##    <chr>       <dbl>     <dbl> <int> <fct>       <fct>     <chr>               
##  1 Fold01      0.572    0.428      6 pass        pass      Preprocessor1_Model1
##  2 Fold01      0.470    0.530      8 run         pass      Preprocessor1_Model1
##  3 Fold01      0.898    0.102     22 pass        pass      Preprocessor1_Model1
##  4 Fold01      0.915    0.0847    69 pass        pass      Preprocessor1_Model1
##  5 Fold01      0.841    0.159     97 pass        pass      Preprocessor1_Model1
##  6 Fold01      0.931    0.0688   112 pass        pass      Preprocessor1_Model1
##  7 Fold01      0.727    0.273    123 pass        pass      Preprocessor1_Model1
##  8 Fold01      0.640    0.360    129 pass        pass      Preprocessor1_Model1
##  9 Fold01      0.740    0.260    136 pass        pass      Preprocessor1_Model1
## 10 Fold01      0.902    0.0979   143 pass        pass      Preprocessor1_Model1
## # ℹ 68,971 more rows
…
