24 bootstrap ROC/AUC – R语言实战临床预测模型
…
后面的方法就是根据开头说的思路，一步一步的实现了。

先说个tidy的方法，借助tidyverse和tidymodels实现。

library(yardstick)
library(rsample)
library(tidyverse)

先说下如何在tidymodels中绘制ROC曲线，详情可参考：tidymodels-yardstick：衡量模型性能

在tidymodels中画一条ROC曲线非常简单，首先是计算画图需要的数据：

roc_data <- roc_curve(aSAH, outcome, s100b,event_level = "second")
roc_data
## # A tibble: 52 × 3
##    .threshold specificity sensitivity
##         <dbl>       <dbl>       <dbl>
##  1    -Inf         0            1    
##  2       0.03      0            1    
##  3       0.04      0            0.976
##  4       0.05      0.0694       0.976
##  5       0.06      0.111        0.976
##  6       0.07      0.139        0.976
##  7       0.08      0.222        0.902
##  8       0.09      0.306        0.878
##  9       0.1       0.389        0.829
## 10       0.11      0.486        0.780
## # ℹ 42 more rows
…
接下来只要使用bootstrap生成1000个自助集就可以很方便的绘制1000条ROC曲线了。

生成1000个自助集：

set.seed(123)
asb <- bootstraps(aSAH, times = 1000)
asb
## # Bootstrap sampling 
## # A tibble: 1,000 × 2
##    splits           id           
##    <list>           <chr>        
##  1 <split [113/44]> Bootstrap0001
##  2 <split [113/43]> Bootstrap0002
##  3 <split [113/47]> Bootstrap0003
##  4 <split [113/41]> Bootstrap0004
##  5 <split [113/37]> Bootstrap0005
##  6 <split [113/37]> Bootstrap0006
##  7 <split [113/39]> Bootstrap0007
##  8 <split [113/38]> Bootstrap0008
##  9 <split [113/33]> Bootstrap0009
## 10 <split [113/42]> Bootstrap0010
## # ℹ 990 more rows
…
